^C:\Users\Rhyth\Documents\Digipen\Code Libraries\Engine\Engine-master\Project2\Project2.vcxproj
C:\Users\Rhyth\Documents\Digipen\Code Libraries\Engine\Engine-master\x64\Debug\Engine.lib
C:\Users\Rhyth\Documents\Digipen\Code Libraries\Engine\Engine-master\x64\Debug\Engine.exp
^C:\Users\Rhyth\Documents\Digipen\Code Libraries\Engine\Engine-master\Project2\Project2.vcxproj
C:\Users\Rhyth\Documents\Digipen\Code Libraries\Engine\Engine-master\x64\Debug\Engine.lib
C:\Users\Rhyth\Documents\Digipen\Code Libraries\Engine\Engine-master\x64\Debug\Engine.exp
^C:\Users\Rhyth\Documents\Digipen\Code Libraries\Engine\Engine-master\Project2\Project2.vcxproj
C:\Users\Rhyth\Documents\Digipen\Code Libraries\Engine\Engine-master\x64\Debug\Engine.lib
C:\Users\Rhyth\Documents\Digipen\Code Libraries\Engine\Engine-master\x64\Debug\Engine.exp
^C:\Users\Rhyth\Documents\Digipen\Code Libraries\Engine\Engine-master\Project2\Project2.vcxproj
C:\Users\Rhyth\Documents\Digipen\Code Libraries\Engine\Engine-master\x64\Debug\Engine.lib
C:\Users\Rhyth\Documents\Digipen\Code Libraries\Engine\Engine-master\x64\Debug\Engine.exp
^C:\Users\Rhyth\Documents\Digipen\Code Libraries\Engine\Engine-master\Project2\Project2.vcxproj
C:\Users\Rhyth\Documents\Digipen\Code Libraries\Engine\Engine-master\x64\Debug\Engine.lib
C:\Users\Rhyth\Documents\Digipen\Code Libraries\Engine\Engine-master\x64\Debug\Engine.exp
^C:\Users\Rhyth\Documents\Digipen\Code Libraries\Engine\Engine-master\Project2\Project2.vcxproj
C:\Users\Rhyth\Documents\Digipen\Code Libraries\Engine\Engine-master\x64\Debug\Engine.lib
C:\Users\Rhyth\Documents\Digipen\Code Libraries\Engine\Engine-master\x64\Debug\Engine.exp
^C:\Users\Rhyth\Documents\Digipen\Code Libraries\Engine\Engine-master\Project2\Project2.vcxproj
C:\Users\Rhyth\Documents\Digipen\Code Libraries\Engine\Engine-master\x64\Debug\Engine.lib
C:\Users\Rhyth\Documents\Digipen\Code Libraries\Engine\Engine-master\x64\Debug\Engine.exp
^C:\Users\Rhyth\Documents\Digipen\Code Libraries\Engine\Engine-master\Project2\Project2.vcxproj
C:\Users\Rhyth\Documents\Digipen\Code Libraries\Engine\Engine-master\x64\Debug\Engine.lib
C:\Users\Rhyth\Documents\Digipen\Code Libraries\Engine\Engine-master\x64\Debug\Engine.exp
^C:\Users\Rhyth\Documents\Digipen\Code Libraries\Engine\Engine-master\Project2\Project2.vcxproj
C:\Users\Rhyth\Documents\Digipen\Code Libraries\Engine\Engine-master\x64\Debug\Engine.lib
C:\Users\Rhyth\Documents\Digipen\Code Libraries\Engine\Engine-master\x64\Debug\Engine.exp
^C:\Users\Rhyth\Documents\Digipen\Code Libraries\Engine\Engine-master\Project2\Project2.vcxproj
C:\Users\Rhyth\Documents\Digipen\Code Libraries\Engine\Engine-master\x64\Debug\Engine.lib
C:\Users\Rhyth\Documents\Digipen\Code Libraries\Engine\Engine-master\x64\Debug\Engine.exp
^C:\Users\Rhyth\Documents\Digipen\Code Libraries\Engine\Engine-master\Project2\Project2.vcxproj
C:\Users\Rhyth\Documents\Digipen\Code Libraries\Engine\Engine-master\x64\Debug\Engine.lib
C:\Users\Rhyth\Documents\Digipen\Code Libraries\Engine\Engine-master\x64\Debug\Engine.exp
^C:\Users\Rhyth\Documents\Digipen\Code Libraries\Engine\Engine-master\Project2\Project2.vcxproj
C:\Users\Rhyth\Documents\Digipen\Code Libraries\Engine\Engine-master\x64\Debug\Engine.lib
C:\Users\Rhyth\Documents\Digipen\Code Libraries\Engine\Engine-master\x64\Debug\Engine.exp
^C:\Users\Rhyth\Documents\Digipen\Code Libraries\Engine\Engine-master\Project2\Project2.vcxproj
C:\Users\Rhyth\Documents\Digipen\Code Libraries\Engine\Engine-master\x64\Debug\Engine.lib
C:\Users\Rhyth\Documents\Digipen\Code Libraries\Engine\Engine-master\x64\Debug\Engine.exp
^C:\Users\Rhyth\Documents\Digipen\Code Libraries\Engine\Engine-master\Project2\Project2.vcxproj
C:\Users\Rhyth\Documents\Digipen\Code Libraries\Engine\Engine-master\x64\Debug\Engine.lib
C:\Users\Rhyth\Documents\Digipen\Code Libraries\Engine\Engine-master\x64\Debug\Engine.exp
^C:\Users\Rhyth\Documents\Digipen\Code Libraries\Engine\Engine-master\Project2\Project2.vcxproj
C:\Users\Rhyth\Documents\Digipen\Code Libraries\Engine\Engine-master\x64\Debug\Engine.lib
C:\Users\Rhyth\Documents\Digipen\Code Libraries\Engine\Engine-master\x64\Debug\Engine.exp
^C:\Users\Rhyth\Documents\Digipen\Code Libraries\Engine\Engine-master\Project2\Project2.vcxproj
C:\Users\Rhyth\Documents\Digipen\Code Libraries\Engine\Engine-master\x64\Debug\Engine.lib
C:\Users\Rhyth\Documents\Digipen\Code Libraries\Engine\Engine-master\x64\Debug\Engine.exp
^C:\Users\Rhyth\Documents\Digipen\Code Libraries\Engine\Engine-master\Project2\Project2.vcxproj
C:\Users\Rhyth\Documents\Digipen\Code Libraries\Engine\Engine-master\x64\Debug\Engine.lib
C:\Users\Rhyth\Documents\Digipen\Code Libraries\Engine\Engine-master\x64\Debug\Engine.exp
^C:\Users\Rhyth\Documents\Digipen\Code Libraries\Engine\Engine-master\Project2\Project2.vcxproj
C:\Users\Rhyth\Documents\Digipen\Code Libraries\Engine\Engine-master\x64\Debug\Engine.lib
C:\Users\Rhyth\Documents\Digipen\Code Libraries\Engine\Engine-master\x64\Debug\Engine.exp
^C:\Users\Rhyth\Documents\Digipen\Code Libraries\Engine\Engine-master\Project2\Project2.vcxproj
C:\Users\Rhyth\Documents\Digipen\Code Libraries\Engine\Engine-master\x64\Debug\Engine.lib
C:\Users\Rhyth\Documents\Digipen\Code Libraries\Engine\Engine-master\x64\Debug\Engine.exp
^C:\Users\Rhyth\Documents\Digipen\Code Libraries\Engine\Engine-master\Project2\Project2.vcxproj
C:\Users\Rhyth\Documents\Digipen\Code Libraries\Engine\Engine-master\x64\Debug\Engine.lib
C:\Users\Rhyth\Documents\Digipen\Code Libraries\Engine\Engine-master\x64\Debug\Engine.exp
^C:\Users\Rhyth\Documents\Digipen\Code Libraries\Engine\Engine-master\Project2\Project2.vcxproj
C:\Users\Rhyth\Documents\Digipen\Code Libraries\Engine\Engine-master\x64\Debug\Engine.lib
C:\Users\Rhyth\Documents\Digipen\Code Libraries\Engine\Engine-master\x64\Debug\Engine.exp
